{
    "result": {
      "a": 75,
      "b": 11,
      "c": 24,
      "d": 24,
      "e": 93,
      "f": 18,
      "g": 18,
      "h": 42,
      "i": 67,
      "j": 1,
      "k": 5,
      "l": 41,
      "m": 15,
      "n": 49,
      "o": 47,
      "p": 17,
      "q": 1,
      "r": 57,
      "s": 54,
      "t": 82,
      "u": 26,
      "v": 16,
      "w": 13,
      "x": 3,
      "y": 10
    }
  }